…
``` r
#readr package: sort by the library tidyverse, read_csv()functions;
#the first thing: let function where to find this file

#the paths show: when you just created a folder in your r project, this would show when you type its name
#using this relative path would not change even you transfer folder to other places

litters_df
```

    ## # A tibble: 49 × 8
    ##    Group `Litter Number` `GD0 weight` `GD18 weight` `GD of Birth`
    ##    <chr> <chr>                  <dbl>         <dbl>         <dbl>
    ##  1 Con7  #85                     19.7          34.7            20
    ##  2 Con7  #1/2/95/2               27            42              19
    ##  3 Con7  #5/5/3/83/3-3           26            41.4            19
    ##  4 Con7  #5/4/2/95/2             28.5          44.1            19
    ##  5 Con7  #4/2/95/3-3             NA            NA              20
    ##  6 Con7  #2/2/95/3-2             NA            NA              20
    ##  7 Con7  #1/5/3/83/3-3/2         NA            NA              20
    ##  8 Con8  #3/83/3-3               NA            NA              20
    ##  9 Con8  #2/95/3                 NA            NA              20
    ## 10 Con8  #3/5/2/2/95             28.5          NA              20
    ## # ℹ 39 more rows
    ## # ℹ 3 more variables: `Pups born alive` <dbl>, `Pups dead @ birth` <dbl>,
    ## #   `Pups survive` <dbl>
…
